<?xml version="1.0" encoding="utf-8"?>
<!-- Generator: Adobe Illustrator 19.2.0, SVG Export Plug-In . SVG Version: 6.00 Build 0)  -->
<svg version="1.1" id="Layer_1" xmlns="http://www.w3.org/2000/svg" xmlns:xlink="http://www.w3.org/1999/xlink" x="0px" y="0px"
	 viewBox="0 0 24 24" style="enable-background:new 0 0 24 24;" xml:space="preserve">
<style type="text/css">
	.st0{fill:#FFFFFF;}
	.st1{fill:#000066;}
	.st2{fill:#CC0000;}
</style>
<g>
	<circle class="st0" cx="12" cy="12" r="12"/>
	<g>
		<path class="st1" d="M14.3,6.3L18.6,2c-1.3-0.9-2.8-1.5-4.3-1.8V6.3z"/>
		<path class="st1" d="M9.7,0.2C8.1,0.5,6.6,1.1,5.4,2l4.3,4.3V0.2z"/>
	</g>
	<g>
		<path class="st1" d="M14.3,23.8c1.6-0.3,3.1-0.9,4.3-1.8l-4.3-4.3V23.8z"/>
		<path class="st1" d="M9.7,17.7L5.4,22c1.3,0.9,2.8,1.5,4.3,1.8V17.7z"/>
	</g>
	<g>
		<path class="st1" d="M23.8,9.7c-0.3-1.6-0.9-3.1-1.8-4.3l-4.3,4.3H23.8z"/>
		<path class="st1" d="M17.7,14.3l4.3,4.3c0.9-1.3,1.5-2.8,1.8-4.3H17.7z"/>
	</g>
	<g>
		<path class="st1" d="M0.2,14.3c0.3,1.6,0.9,3.1,1.8,4.3l4.3-4.3H0.2z"/>
		<path class="st1" d="M6.3,9.7L2,5.4C1.1,6.6,0.5,8.1,0.2,9.7H6.3z"/>
	</g>
	<path class="st2" d="M0.1,13.6h10.3v10.3c0.5,0.1,1.1,0.1,1.6,0.1s1.1-0.1,1.6-0.1V13.6h10.3c0.1-0.5,0.1-1.1,0.1-1.6
		s-0.1-1.1-0.1-1.6H13.6V0.1C13.1,0.1,12.6,0,12,0s-1.1,0.1-1.6,0.1v10.3H0.1C0.1,10.9,0,11.4,0,12S0.1,13.1,0.1,13.6z"/>
	<path class="st2" d="M9.7,9.7V9.4L3.6,3.4C3.2,3.8,2.9,4.2,2.5,4.6l5.1,5.1H9.7z"/>
	<path class="st2" d="M14.3,9.7h0.3l6.1-6.1c-0.4-0.4-0.8-0.8-1.3-1.1l-5.1,5.1V9.7z"/>
	<path class="st2" d="M14.3,14.3v0.1l6.1,6.1c0.4-0.4,0.8-0.8,1.1-1.3l-5-5H14.3z"/>
	<path class="st2" d="M9.7,14.3H9.6l-6.1,6.1c0.4,0.4,0.8,0.8,1.3,1.1l5-5L9.7,14.3L9.7,14.3z"/>
</g>
</svg>
